%YAML 1.1
%TAG !u! tag:unity3d.com,2011:
--- !u!21 &2100000
Material:
  serializedVersion: 6
  m_ObjectHideFlags: 0
  m_PrefabParentObject: {fileID: 0}
  m_PrefabInternal: {fileID: 0}
  m_Name: Letras 02
  m_Shader: {fileID: 4800000, guid: 81ae609a37b59f043ac4256abae11b2e, type: 3}
  m_ShaderKeywords: _BACK_COLOR_NONE _BOTTOM_COLOR_SOLID _EMISSION _FADE_NONE _FRONT_COLOR_GRADIENT3
    _LEFT_COLOR_SOLID _LIGHTMAP_ON _MIXCOLOR_ON _RIGHT_COLOR_SOLID _SHADOW_ON _TOP_COLOR_SOLID
    _UV_SPACE_WORLD
  m_LightmapFlags: 1
  m_EnableInstancingVariants: 0
  m_DoubleSidedGI: 0
  m_CustomRenderQueue: -1
  stringTagMap: {}
  disabledShaderPasses: []
  m_SavedProperties:
    serializedVersion: 3
    m_TexEnvs:
    - _BumpMap:
        m_Texture: {fileID: 0}
        m_Scale: {x: 1, y: 1}
        m_Offset: {x: 0, y: 0}
    - _DetailAlbedoMap:
        m_Texture: {fileID: 0}
        m_Scale: {x: 1, y: 1}
        m_Offset: {x: 0, y: 0}
    - _DetailMask:
        m_Texture: {fileID: 0}
        m_Scale: {x: 1, y: 1}
        m_Offset: {x: 0, y: 0}
    - _DetailNormalMap:
        m_Texture: {fileID: 0}
        m_Scale: {x: 1, y: 1}
        m_Offset: {x: 0, y: 0}
    - _EmissionMap:
        m_Texture: {fileID: 0}
        m_Scale: {x: 1, y: 1}
        m_Offset: {x: 0, y: 0}
    - _MainTex:
        m_Texture: {fileID: 0}
        m_Scale: {x: 1, y: 1}
        m_Offset: {x: 0, y: 0}
    - _MetallicGlossMap:
        m_Texture: {fileID: 0}
        m_Scale: {x: 1, y: 1}
        m_Offset: {x: 0, y: 0}
    - _OcclusionMap:
        m_Texture: {fileID: 0}
        m_Scale: {x: 1, y: 1}
        m_Offset: {x: 0, y: 0}
    - _ParallaxMap:
        m_Texture: {fileID: 0}
        m_Scale: {x: 1, y: 1}
        m_Offset: {x: 0, y: 0}
    - _Ramp:
        m_Texture: {fileID: 0}
        m_Scale: {x: 1, y: 1}
        m_Offset: {x: 0, y: 0}
    m_Floats:
    - _Ambient: 0
    - _AmbientPower: 1
    - _BACK_COLOR: 0
    - _BOTTOM_COLOR: 1
    - _BackColorPosition3: 0
    - _BackColorRotation: 0
    - _BottomColorPosition3: 0
    - _BottomColorRotation: 0
    - _BumpScale: 1
    - _Cutoff: 0.5
    - _DetailNormalMapScale: 1
    - _Diffuse: 0
    - _DiffusePower: 1
    - _DstBlend: 0
    - _FADE: 0
    - _FRONT_COLOR: 3
    - _FrontColorPosition3: 0
    - _FrontColorRotation: 1.21
    - _GlossMapScale: 1
    - _Glossiness: 0.5
    - _GlossyReflections: 1
    - _LEFT_COLOR: 1
    - _LIGHTMAP: 1
    - _LeftColorPosition3: 0
    - _LeftColorRotation: 0
    - _LightmapPower: 1
    - _Metallic: 0
    - _MixColor: 1
    - _MixColorPower: 0.5
    - _Mode: 0
    - _OcclusionStrength: 1
    - _OutlineWidth: 0.5
    - _Parallax: 0.02
    - _RIGHT_COLOR: 1
    - _RightColorPosition3: 0
    - _RightColorRotation: 0
    - _RimMax: 0.396
    - _RimMin: 0
    - _Shadow: 1
    - _ShadowPower: 0.07
    - _Shininess: 0.7
    - _SmoothnessTextureChannel: 0
    - _Specular: 0
    - _SpecularHighlights: 1
    - _SrcBlend: 1
    - _TOP_COLOR: 1
    - _TextureEnabled: 0
    - _TopColorPosition3: 0
    - _TopColorRotation: 0
    - _UVSec: 0
    - _UV_SPACE: 1
    - _Vertex_Color: 0
    - _ZWrite: 1
    m_Colors:
    - _AmbientColor: {r: 1, g: 1, b: 1, a: 1}
    - _BackColor: {r: 0.082, g: 1, b: 0.514, a: 1}
    - _BackColor1: {r: 0.082, g: 1, b: 0.514, a: 1}
    - _BackColor2: {r: 1, g: 0.082, b: 0.624, a: 1}
    - _BackColor3: {r: 1, g: 0.082, b: 0.624, a: 1}
    - _BackColorPosition: {r: 0, g: 1, b: 0, a: 1}
    - _BottomColor: {r: 0.016868528, g: 0.4816804, b: 0.5735294, a: 1}
    - _BottomColor1: {r: 0.667, g: 0.851, b: 0.937, a: 1}
    - _BottomColor2: {r: 0.29, g: 0.8, b: 0.2, a: 1}
    - _BottomColor3: {r: 0.29, g: 0.8, b: 0.2, a: 1}
    - _BottomColorPosition: {r: 0, g: 1, b: 0, a: 1}
    - _Color: {r: 0.117863335, g: 0.43373707, b: 0.8014706, a: 1}
    - _DefaultColor: {r: 0.8088235, g: 0.1665225, b: 0.47216916, a: 1}
    - _DiffuseColor: {r: 1, g: 1, b: 1, a: 1}
    - _EmissionColor: {r: 0, g: 0, b: 0, a: 1}
    - _FadeColor: {r: 0.77205884, g: 0.102184266, b: 0.102184266, a: 1}
    - _FadePower: {r: 0, g: 0.99999994, b: 0, a: 1}
    - _FrontColor: {r: 0, g: 0.6814816, b: 1, a: 1}
    - _FrontColor1: {r: 0.8078432, g: 0.16470589, b: 0.47058827, a: 1}
    - _FrontColor2: {r: 0, g: 0, b: 0, a: 1}
    - _FrontColor3: {r: 0.027573524, g: 0.18382353, b: 0, a: 1}
    - _FrontColorPosition: {r: 0.28209785, g: 0.70209783, b: 0, a: 1}
    - _HColor: {r: 1, g: 0.42647058, b: 0.7468561, a: 1}
    - _LeftColor: {r: 0.23096885, g: 0.49671587, b: 0.6544118, a: 1}
    - _LeftColor1: {r: 0.765, g: 0.522, b: 0.459, a: 1}
    - _LeftColor2: {r: 0.98, g: 0.859, b: 0.706, a: 1}
    - _LeftColor3: {r: 0.98, g: 0.859, b: 0.706, a: 1}
    - _LeftColorPosition: {r: 0, g: 1, b: 0, a: 1}
    - _OutlineColor: {r: 0, g: 0, b: 0, a: 0}
    - _RightColor: {r: 1, g: 0.5441177, b: 0.7421906, a: 1}
    - _RightColor1: {r: 0.937, g: 0.765, b: 1, a: 1}
    - _RightColor2: {r: 0.737, g: 0.071, b: 0.984, a: 1}
    - _RightColor3: {r: 0.737, g: 0.071, b: 0.984, a: 1}
    - _RightColorPosition: {r: 0, g: 1, b: 0, a: 1}
    - _RimColor: {r: 0.8, g: 0.8, b: 0.8, a: 0.6}
    - _SColor: {r: 0, g: 0.28838736, b: 0.3455882, a: 1}
    - _ShadowColor: {r: 0.47794116, g: 0.78397566, b: 1, a: 1}
    - _SpecColor: {r: 1, g: 1, b: 1, a: 1}
    - _TopColor: {r: 0.72794116, g: 0.090992644, b: 0.55223113, a: 1}
    - _TopColor1: {r: 0.667, g: 0.851, b: 0.937, a: 1}
    - _TopColor2: {r: 0.29, g: 0.8, b: 0.2, a: 1}
    - _TopColor3: {r: 0.29, g: 0.8, b: 0.2, a: 1}
    - _TopColorPosition: {r: 0, g: 1, b: 0, a: 1}
