%YAML 1.1
%TAG !u! tag:unity3d.com,2011:
--- !u!78 &1
TagManager:
  serializedVersion: 2
  tags:
  - Laser_target
  - Foamy_collision
  - Gem_Bone
  - InitialTrash
  - Gem_Fire
  - Gem_Carrot
  - Gem_Coral
  - Gem_Crown
  - Trash
  - Urchin
  - Puddle
  - Btn_collider
  - NextToDestroy
  - Validation_sprites
  - Player(Clone)
  - Jellyfish
  - GoalCollider
  - Gem_Fish
  - Detect
  - PosPlayer
  - PosGem
  layers:
  - Default
  - TransparentFX
  - Ignore Raycast
  - 
  - Water
  - UI
  - 
  - 
  - Gems
  - Puddle
  - Floor
  - Character_seq
  - Ground
  - 
  - 
  - 
  - 
  - 
  - 
  - 
  - 
  - 
  - 
  - 
  - 
  - 
  - 
  - 
  - 
  - 
  - 
  - 
  m_SortingLayers:
  - name: Default
    uniqueID: 0
    locked: 0
