%YAML 1.1
%TAG !u! tag:unity3d.com,2011:
--- !u!21 &2100000
Material:
  serializedVersion: 6
  m_ObjectHideFlags: 0
  m_PrefabParentObject: {fileID: 0}
  m_PrefabInternal: {fileID: 0}
  m_Name: Cuerpo 01
  m_Shader: {fileID: 4800000, guid: 51dcab611b73444f1bd3ec6e9f939649, type: 3}
  m_ShaderKeywords: _AMBIENT_ON _BACK_COLOR_SOLID _BG_COLOR_GRADIENT _BOTTOM_COLOR_SOLID
    _EMISSION _FADE_NONE _FRONT_COLOR_SOLID _LEFT_COLOR_SOLID _LIGHTMAP_ON _MIXCOLOR_ON
    _RIGHT_COLOR_SOLID _SCREENSPACE_ON _SPECULAR_ON _TOP_COLOR_SOLID _UV_SPACE_WORLD
  m_LightmapFlags: 1
  m_EnableInstancingVariants: 0
  m_DoubleSidedGI: 0
  m_CustomRenderQueue: -1
  stringTagMap: {}
  disabledShaderPasses: []
  m_SavedProperties:
    serializedVersion: 3
    m_TexEnvs:
    - _BumpMap:
        m_Texture: {fileID: 0}
        m_Scale: {x: 1, y: 1}
        m_Offset: {x: 0, y: 0}
    - _DetailAlbedoMap:
        m_Texture: {fileID: 0}
        m_Scale: {x: 1, y: 1}
        m_Offset: {x: 0, y: 0}
    - _DetailMask:
        m_Texture: {fileID: 0}
        m_Scale: {x: 1, y: 1}
        m_Offset: {x: 0, y: 0}
    - _DetailNormalMap:
        m_Texture: {fileID: 0}
        m_Scale: {x: 1, y: 1}
        m_Offset: {x: 0, y: 0}
    - _EmissionMap:
        m_Texture: {fileID: 0}
        m_Scale: {x: 1, y: 1}
        m_Offset: {x: 0, y: 0}
    - _MainTex:
        m_Texture: {fileID: 2800000, guid: 45742315dceb9ed4e9ebe57999406f09, type: 3}
        m_Scale: {x: 1, y: 1}
        m_Offset: {x: 0, y: 0}
    - _MetallicGlossMap:
        m_Texture: {fileID: 0}
        m_Scale: {x: 1, y: 1}
        m_Offset: {x: 0, y: 0}
    - _OcclusionMap:
        m_Texture: {fileID: 0}
        m_Scale: {x: 1, y: 1}
        m_Offset: {x: 0, y: 0}
    - _ParallaxMap:
        m_Texture: {fileID: 0}
        m_Scale: {x: 1, y: 1}
        m_Offset: {x: 0, y: 0}
    - _SpecGlossMap:
        m_Texture: {fileID: 0}
        m_Scale: {x: 1, y: 1}
        m_Offset: {x: 0, y: 0}
    m_Floats:
    - _Ambient: 1
    - _AmbientPower: 0.2
    - _BACK_COLOR: 1
    - _BG_COLOR: 1
    - _BOTTOM_COLOR: 1
    - _BackColorPosition3: 0
    - _BackColorRotation: 0
    - _BgColorIntensity: 1
    - _BgColorPosition3: 0
    - _BgColorRotation: 0
    - _BottomColorPosition3: 0
    - _BottomColorRotation: 0
    - _BumpScale: 1
    - _Cutoff: 0.5
    - _DetailNormalMapScale: 1
    - _Diffuse: 0
    - _DiffusePower: 0
    - _DstBlend: 0
    - _FADE: 0
    - _FRONT_COLOR: 1
    - _FrontColorPosition3: 0
    - _FrontColorRotation: 0
    - _GlossMapScale: 1
    - _Glossiness: 0.5
    - _GlossyReflections: 1
    - _LEFT_COLOR: 1
    - _LIGHTMAP: 1
    - _LeftColorPosition3: 0
    - _LeftColorRotation: 0
    - _LightmapPower: 1
    - _Metallic: 0
    - _MixColor: 1
    - _MixColorPower: 0.5
    - _Mode: 0
    - _OcclusionStrength: 1
    - _OutlineWidth: 0.5
    - _Parallax: 0.02
    - _RIGHT_COLOR: 1
    - _RightColorPosition3: 0
    - _RightColorRotation: 0
    - _SCREENSPACE: 1
    - _Shadow: 0
    - _ShadowPower: 0
    - _Shininess: 0.087
    - _SmoothnessTextureChannel: 0
    - _Specular: 1
    - _SpecularHighlights: 1
    - _SrcBlend: 1
    - _TOP_COLOR: 1
    - _TextureEnabled: 0
    - _TopColorPosition3: 0
    - _TopColorRotation: 0
    - _UVSec: 0
    - _UV_SPACE: 1
    - _Vertex_Color: 0
    - _ZWrite: 1
    m_Colors:
    - _AmbientColor: {r: 0.27595156, g: 0.6163465, b: 0.64705884, a: 1}
    - _BackColor: {r: 0.09992844, g: 0.061634954, b: 0.14705884, a: 1}
    - _BackColor1: {r: 0.082, g: 1, b: 0.514, a: 1}
    - _BackColor2: {r: 1, g: 0.082, b: 0.624, a: 1}
    - _BackColor3: {r: 1, g: 0.082, b: 0.624, a: 1}
    - _BackColorPosition: {r: 0, g: 1, b: 0, a: 1}
    - _BgColor: {r: 0.957, g: 1, b: 0.686, a: 1}
    - _BgColor1: {r: 0.667, g: 0.851, b: 0.937, a: 1}
    - _BgColor2: {r: 0.29, g: 0.8, b: 0.2, a: 1}
    - _BgColor3: {r: 0.29, g: 0.8, b: 0.2, a: 1}
    - _BgColorPosition: {r: 0, g: 1, b: 0, a: 1}
    - _BottomColor: {r: 0, g: 0.835, b: 1, a: 1}
    - _BottomColor1: {r: 0.667, g: 0.851, b: 0.937, a: 1}
    - _BottomColor2: {r: 0.29, g: 0.8, b: 0.2, a: 1}
    - _BottomColor3: {r: 0.29, g: 0.8, b: 0.2, a: 1}
    - _BottomColorPosition: {r: 0, g: 1, b: 0, a: 1}
    - _Color: {r: 1, g: 1, b: 1, a: 1}
    - _DefaultColor: {r: 0.28903547, g: 0.67345643, b: 0.72794116, a: 1}
    - _DiffuseColor: {r: 1, g: 1, b: 1, a: 1}
    - _EmissionColor: {r: 0, g: 0, b: 0, a: 1}
    - _FadeColor: {r: 0.359438, g: 0.08628893, b: 0.41911763, a: 1}
    - _FadePower: {r: 0, g: 0.068421066, b: 0, a: 1}
    - _FrontColor: {r: 0.20663925, g: 0.556886, b: 0.7205882, a: 1}
    - _FrontColor1: {r: 0.667, g: 0.851, b: 0.937, a: 1}
    - _FrontColor2: {r: 0.29, g: 0.8, b: 0.2, a: 1}
    - _FrontColor3: {r: 0.29, g: 0.8, b: 0.2, a: 1}
    - _FrontColorPosition: {r: 0, g: 1, b: 0, a: 1}
    - _LeftColor: {r: 0.765, g: 0.459, b: 0.73123443, a: 1}
    - _LeftColor1: {r: 0.765, g: 0.522, b: 0.459, a: 1}
    - _LeftColor2: {r: 0.98, g: 0.859, b: 0.706, a: 1}
    - _LeftColor3: {r: 0.98, g: 0.859, b: 0.706, a: 1}
    - _LeftColorPosition: {r: 0, g: 1, b: 0, a: 1}
    - _OutlineColor: {r: 0, g: 0, b: 0, a: 0}
    - _RightColor: {r: 0.22610293, g: 0.29107505, b: 0.60294116, a: 1}
    - _RightColor1: {r: 0.937, g: 0.765, b: 1, a: 1}
    - _RightColor2: {r: 0.737, g: 0.071, b: 0.984, a: 1}
    - _RightColor3: {r: 0.737, g: 0.071, b: 0.984, a: 1}
    - _RightColorPosition: {r: 0, g: 1, b: 0, a: 1}
    - _ShadowColor: {r: 0.2794118, g: 0.55273837, b: 1, a: 1}
    - _SpecColor: {r: 0.99077076, g: 0.9044118, b: 1, a: 1}
    - _TopColor: {r: 0.31108314, g: 0.18733782, b: 0.33088237, a: 1}
    - _TopColor1: {r: 0.667, g: 0.851, b: 0.937, a: 1}
    - _TopColor2: {r: 0.29, g: 0.8, b: 0.2, a: 1}
    - _TopColor3: {r: 0.29, g: 0.8, b: 0.2, a: 1}
    - _TopColorPosition: {r: 0, g: 1, b: 0, a: 1}
